<svg width="70" height="70" viewBox="0 0 70 70" fill="none" xmlns="http://www.w3.org/2000/svg">
<g clip-path="url(#clip0_2036_2788)">
<path d="M70 0H0V70H70V0Z" fill="#0B2577"/>
<path d="M42.5781 54.0469V64H40.1787V54.0469H42.5781ZM45.5723 54.0469V55.8994H37.2529V54.0469H45.5723ZM50.5406 54.0469V64H48.148V54.0469H50.5406ZM54.8186 54.0469H56.7736L58.9953 60.9717L61.217 54.0469H63.1721L59.7883 64H58.2023L54.8186 54.0469ZM53.6291 54.0469H55.6525L56.0285 61.6758V64H53.6291V54.0469ZM62.3381 54.0469H64.3684V64H61.9621V61.6758L62.3381 54.0469Z" fill="white"/>
</g>
<defs>
<clipPath id="clip0_2036_2788">
<rect width="70" height="70" fill="white"/>
</clipPath>
</defs>
</svg>
